Error: Out of Memory (heap overflow)
   C:\C55\BIN\C55ASL.DLL 14:0c85
   C:\C55\BIN\C55ASL.DLL 14:0bd9
   C:\C55\BIN\C55ASL.DLL 14:01cc
   C:\C55\BIN\C55ASL.DLL 14:05c2
   C:\C55\BIN\C55ASL.DLL 1e:0603
   C:\C55\BIN\C55ASL.DLL 1e:0af0
   C:\C55\BIN\C55ASL.DLL 1e:0b27
   C:\C55\BIN\C55ASL.DLL 1e:1c60
   C:\C55\BIN\C55CIF.DLL  8:16b2
   C:\C55\BIN\C55CIF.DLL  9:0651
----------------------------------
